<svg xmlns="http://www.w3.org/2000/svg" width="92" height="92" viewBox="0 0 92 92">
  <metadata><?xpacket begin="﻿" id="W5M0MpCehiHzreSzNTczkc9d"?>
<x:xmpmeta xmlns:x="adobe:ns:meta/" x:xmptk="Adobe XMP Core 5.6-c138 79.159824, 2016/09/14-01:09:01        ">
   <rdf:RDF xmlns:rdf="http://www.w3.org/1999/02/22-rdf-syntax-ns#">
      <rdf:Description rdf:about=""/>
   </rdf:RDF>
</x:xmpmeta>
                                                                                                    
                                                                                                    
                                                                                                    
                                                                                                    
                                                                                                    
                                                                                                    
                                                                                                    
                                                                                                    
                                                                                                    
                                                                                                    
                                                                                                    
                                                                                                    
                                                                                                    
                                                                                                    
                                                                                                    
                                                                                                    
                                                                                                    
                                                                                                    
                                                                                                    
                                                                                                    
                           
<?xpacket end="w"?></metadata>
<defs>
    <style>
      .cls-1 {
        fill: #505c5d;
        fill-rule: evenodd;
      }
    </style>
  </defs>
  <path id="icon_exito" data-name="icon exito" class="cls-1" d="M633.018,294.982a45.986,45.986,0,1,0,13.47,32.518A45.686,45.686,0,0,0,633.018,294.982Zm-32.518,72.3A39.782,39.782,0,1,1,640.282,327.5,39.827,39.827,0,0,1,600.5,367.282Zm24.782-56.9a10.063,10.063,0,0,0-14.239,0l-16.031,16.031-5.055-5.056A10.068,10.068,0,1,0,575.718,335.6l12.175,12.174a10.068,10.068,0,0,0,14.239,0l23.15-23.15A10.08,10.08,0,0,0,625.282,310.382Zm-4.389,9.85-23.15,23.15a3.863,3.863,0,0,1-5.462,0l-12.174-12.175a3.862,3.862,0,0,1,5.462-5.461L592.818,333a3.1,3.1,0,0,0,4.388,0l18.225-18.225A3.862,3.862,0,1,1,620.893,320.232Z" transform="translate(-554.5 -281.5)"/>
</svg>
