<?xml version="1.0" encoding="utf-8"?>
<!-- Generator: Adobe Illustrator 21.0.2, SVG Export Plug-In . SVG Version: 6.00 Build 0)  -->
<svg version="1.1" id="Layer_1" xmlns="http://www.w3.org/2000/svg" xmlns:xlink="http://www.w3.org/1999/xlink" x="0px" y="0px"
	 viewBox="0 0 229 46" enable-background="new 0 0 229 46" xml:space="preserve">
<g>
	<g>
		<path fill="#FFFFFF" d="M7.3,42C6,42,5,41,5,39.7V11.2c0,0-0.2-1.6,0.4-2.2C6,8.4,6.8,8.1,7.6,8h0.5c0.1,0.1,0.3,0.1,0.4,0.1
			C10.6,8.1,14,9,14,9l1.7-1h0.1c0,0,0.3,0,0.5,0l0.6,0.1l0.6,0.1l0.6,0.1c1.7,0.4,3.2,1.1,4.6,2.2c1.4,1.1,2.6,2.5,3.4,4.1
			c0.4,0.8,0.7,1.7,1,2.6c0.1,0.4,0.2,0.9,0.2,1.4c0,0.1,0,0.3,0,0.5l0,0.2c0,0.1,0,0.2-0.3,0.3v0.5v0.2c0.3,0.2,0.3,0.3,1,0.4v0.2
			c-0.7,0.3-0.7,0.4-0.8,0.6c-0.1,0.5-0.1,1-0.2,1.4c-0.2,1-0.6,1.8-1,2.6c-0.8,1.7-2,3.1-3.4,4.1c-1.4,1-2.9,1.8-4.5,2.1
			c-0.7,0.2-2.3,0.3-2.3,0.3h-0.2c-0.2,0-0.4,0-0.8,0c-0.2,0-0.4,0-0.5,0c-0.9,0-2,0-3.2,0V40c0,1.1-0.9,2-2,2H7.3z M11,25
			c1.1,0,2.1,0,3.1,0c0.1,0,0.4,0,0.4,0s0.8,0.6,0.9,1h0c0.3-0.4,0.7-0.5,1.1-0.6c0.7-0.2,1.4-0.6,2-1.1c0.7-0.5,1.2-1.2,1.5-1.9
			c0.2-0.4,0.3-0.8,0.4-1.2c0-0.2,0.1-0.4,0.1-0.6c0,0,0-0.1-0.4-0.1v-0.2c0.5,0,0.5-0.1,1-0.2V20l-1-0.3c0,0,0-0.8,0-0.9
			c0-0.1,0-0.1,0-0.1l0,0c0-0.3-0.1-0.5-0.1-0.6c-0.1-0.4-0.2-0.8-0.4-1.2c-0.3-0.7-0.8-1.4-1.4-1.9c-0.5-0.5-1.2-0.9-1.8-1.1
			c-0.2,0-0.3-0.1-0.5-0.1l-0.2,0l-0.3,0l-0.3,0c-2,0-3.3,0-4,0V25z"/>
		<path fill="#FFFFFF" d="M50.6,41.3l-8.8-10.6c-1.1,0-2,0-2.8,0v10.1c0,0.7-0.5,1.2-1.2,1.2h-2.9c-1.1,0-1.9-0.9-1.9-1.9V11.2
			c0,0,0.1-1.6,0.7-2.2c0.6-0.6,1.3-0.9,2.2-1h0.8c0.2,0.1,0.3,0.1,0.5,0.1c1.6,0,5.1,0.9,5.1,0.9L44,8h0.1c0.2,0,0.3,0,0.5,0l0.6,0
			l0.6,0.1l0.6,0.1c1.7,0.4,3.2,1,4.6,2c1.4,1,2.6,2.3,3.4,3.9c0.4,0.8,0.8,1.6,1,2.5c0.1,0.4,0.2,0.8,0.2,1.3c0,0.1,0,0.2,0,0.4
			l0,0.2c0,0.1,0,0.2-0.6,0.3v0.5v0.2c0.6,0.2,1,0.4,1,0.4v0.4c0,0.3-0.1,0.5-0.1,0.6c-0.1,0.5-0.1,0.9-0.2,1.3
			c-0.2,0.9-0.6,1.7-1,2.5c-0.9,1.6-2.1,2.9-3.5,3.9c-0.7,0.5-1.4,0.9-2.1,1.2l8.4,10.4c0.6,0.8,0.1,1.9-0.9,1.9h-4.4
			C51.5,42,51,41.7,50.6,41.3z M39,24c1.1,0,2.1,0,3.1,0c0.1,0,0.7,0,0.7,0s0.8,0.4,0.9,0.3c0.4,0,0.7-0.1,1.1-0.2
			c0.7-0.2,1.4-0.5,2-1c0.6-0.5,1.1-1.1,1.5-1.7c0.2-0.3,0.3-0.7,0.4-1.1c0-0.1,0.1-0.3,0.1-0.5l-0.7,0v-0.1v-0.1l1-0.2v-0.1V19v0
			c-0.3-0.1-1-0.2-1-0.2v-0.5l0,0c0-0.2,0-0.4-0.1-0.5c-0.1-0.4-0.2-0.7-0.4-1.1c-0.3-0.7-0.8-1.2-1.3-1.7c-0.6-0.5-1.2-0.8-1.9-1
			c-0.2,0-0.3-0.1-0.5-0.1l-0.3,0l-0.3,0l-0.3,0l-0.9,0c-1.1,0-2.2,0-3.1,0V24z"/>
		<path fill="#FFFFFF" d="M121.5,41.1L108,19.7v20.4c0,1.1-0.9,1.9-1.9,1.9h-2.8c-1.2,0-2.1-1-2.1-2.1l0.7-28.8
			c0-0.8,0.3-1.6,0.9-2.2c0.6-0.6,1.3-0.9,2.2-0.9h2.6c0.7,0,1.3,0.3,1.6,0.9L122,29.8V9.9c0-1.1,0.9-1.9,1.9-1.9h3
			c1.1,0,1.9,0.9,1.9,2l-0.7,30.1c0,1.1-0.9,1.9-1.9,1.9h-3.1C122.5,42,121.9,41.7,121.5,41.1z"/>
		<path fill="#FFFFFF" d="M146,40.1V14h-8.1c-1.1,0-1.9-0.9-1.9-1.9v-1c0-0.8,0.3-1.6,0.9-2.1c0.6-0.6,1.3-0.9,2.2-0.9h21
			c1.1,0,1.9,0.9,1.9,1.9v2.1c0,1.1-0.9,1.9-1.9,1.9H152v26.1c0,1.1-0.9,1.9-1.9,1.9h-2.1C146.9,42,146,41.1,146,40.1z"/>
		<path fill="#FFFFFF" d="M168.4,33.7c-0.3-0.5-0.4-1.1-0.4-1.7l0-21.6c0-0.1,0-0.3,0.1-0.4c0.7-1.3,1.7-2,3-2h1.9
			c1.1,0,1.9,0.9,1.9,1.9v19.5c0,1.7,0.6,3,1.7,4.1c1.1,1.1,2.6,1.7,4.3,1.7c1.7,0,3.1-0.6,4.3-1.7c1.1-1.1,1.7-2.5,1.7-4.1V9.9
			c0-1.1,0.9-1.9,1.9-1.9h3.5c0.3,0,0.5,0.2,0.5,0.5l0,23.5c0,0.6-0.1,1.2-0.4,1.7c-2.9,5.3-6.9,8-12.1,8
			C175.4,41.7,171.3,39.1,168.4,33.7z"/>
		<path fill="#FFFFFF" d="M199,40.1v-4.2c0-0.6,0.2-1.2,0.6-1.7L216,14h-15.1c-1.1,0-1.9-0.9-1.9-1.9v-0.9c0-1,0.5-1.9,1.4-2.6
			c0.5-0.3,1.3-0.6,1.9-0.6l19.8,0c1.1,0,1.9,0.9,1.9,1.9v4.2c0,0.6-0.2,1.1-0.6,1.6L207,36h15.1c1.1,0,1.9,0.9,1.9,1.9v2.1
			c0,1.1-0.9,1.9-1.9,1.9h-21.1C199.9,42,199,41.1,199,40.1z"/>
	</g>
	
		<ellipse transform="matrix(0.8054 -0.5927 0.5927 0.8054 -0.4383 51.0575)" fill="#FF6F20" cx="77.5" cy="26.2" rx="14.5" ry="14.5"/>
	<path fill="#FFFFFF" d="M91.9,15.8c-3.3-4.5-8.6-7.1-14.1-7.1c-3.7,0-7.3,1.2-10.4,3.4c-7.8,5.7-9.4,16.7-3.7,24.5
		c3.3,4.5,8.6,7.1,14.1,7.1h0c3.7,0,7.3-1.2,10.4-3.4C95.9,34.6,97.6,23.6,91.9,15.8z M68.5,33c-3.8-5.1-2.7-12.4,2.5-16.1
		c2-1.5,4.4-2.2,6.8-2.2c0.5,0,1,0,1.5,0.1c-4.5,3.9-10.3,10.6-9.7,19.5C69.2,33.9,68.8,33.5,68.5,33z M84.6,35.5
		c-0.9,0.7-1.9,1.2-3,1.6c-1.2-4.7-2.2-12.9,3.3-19.9c0.8,0.6,1.5,1.4,2.1,2.2C90.9,24.5,89.8,31.7,84.6,35.5z"/>
	<path fill="#66BC29" d="M74.9,43.5c-2.4-6.4-2.6-18.2,7.3-28.1c0,0-9.8,13.9-4.6,28.3c0,0-1.2,0-1.5-0.1
		C75.8,43.6,74.9,43.5,74.9,43.5z"/>
	<path fill="#FFFFFF" d="M93.9,4.8c0.5,0,0.9,0.2,1,0.6c0.2,0.8-3,5.6-3,5.6s-1.1-1.4-2-2.1c-1.1-0.8-3.2-1.3-3.2-1.3
		S92.4,4.8,93.9,4.8z"/>
</g>
</svg>
